…
``` r
diabetes_fit_oversamp <- 
  diabetes_wflow_oversamp %>% 
  fit(data = train_data)
```


``` r
diabetes_fit_oversamp %>% 
  extract_fit_parsnip() %>% 
  tidy()
```

```
## # A tibble: 72 × 5
##    term                          estimate  std.error statistic   p.value
##    <chr>                            <dbl>      <dbl>     <dbl>     <dbl>
##  1 (Intercept)                 -4.04      0.338        -12.0   5.68e- 33
##  2 PM_BMI_SR                    0.0000610 0.00000900     6.77  1.27e- 11
##  3 SDC_AGE_CALC                 0.0591    0.00174       34.1   3.93e-254
##  4 NUT_VEG_QTY                 -0.00464   0.00931       -0.499 6.18e-  1
##  5 NUT_FRUITS_QTY               0.0631    0.0116         5.43  5.74e-  8
##  6 ALC_CUR_FREQ                -0.0784    0.00680      -11.5   9.57e- 31
##  7 PA_SIT_AVG_TIME_DAY          0.0000143 0.0000336      0.426 6.70e-  1
##  8 SLE_TIME                     0.000793  0.000181       4.38  1.21e-  5
##  9 PM_WEIGHT_SR_AVG             0.000339  0.0000355      9.55  1.36e- 21
## 10 pa_cat_X2_Moderate.Activity -0.0319    0.0368        -0.867 3.86e-  1
## # ℹ 62 more rows
```
…
diabetes_wflow_oversamp_tune <- workflow() %>% 
          add_model(logistic_m_mixture) %>% 
          add_recipe(diabetes_rec_oversamp) %>% 
          tune_grid(resamples = folds,
                    control = control_grid(save_pred = TRUE, 
                                            verbose = FALSE)) ## Edit for running live

collect_metrics(diabetes_wflow_oversamp_tune) 
```

```
## # A tibble: 30 × 8
##     penalty mixture .metric     .estimator   mean     n  std_err .config        
##       <dbl>   <dbl> <chr>       <chr>       <dbl> <int>    <dbl> <chr>          
##  1 1.00e- 7   0.140 accuracy    binary     0.905      5 0.00287  Preprocessor1_…
##  2 1.00e- 7   0.140 brier_class binary     0.0796     5 0.00143  Preprocessor1_…
##  3 1.00e- 7   0.140 roc_auc     binary     0.778      5 0.00454  Preprocessor1_…
##  4 2.42e-10   0.202 accuracy    binary     0.905      5 0.00287  Preprocessor1_…
##  5 2.42e-10   0.202 brier_class binary     0.0796     5 0.00143  Preprocessor1_…
##  6 2.42e-10   0.202 roc_auc     binary     0.778      5 0.00454  Preprocessor1_…
##  7 6.44e- 1   0.311 accuracy    binary     0.945      5 0.00174  Preprocessor1_…
##  8 6.44e- 1   0.311 brier_class binary     0.0829     5 0.000935 Preprocessor1_…
##  9 6.44e- 1   0.311 roc_auc     binary     0.5        5 0        Preprocessor1_…
## 10 5.58e- 9   0.396 accuracy    binary     0.905      5 0.00276  Preprocessor1_…
## # ℹ 20 more rows
```
…
