…
``` r
predictions <- rf_result %>% 
                  collect_predictions()
predictions
```

```
## # A tibble: 551,480 × 9
##    .pred_class .pred_0 .pred_1 id     .row  mtry min_n diabetes_t2 .config      
##    <fct>         <dbl>   <dbl> <chr> <int> <int> <int> <fct>       <chr>        
##  1 0             0.666   0.334 Fold1     1     1    25 0           Preprocessor…
##  2 0             0.704   0.296 Fold1     3     1    25 0           Preprocessor…
##  3 0             0.662   0.338 Fold1     6     1    25 0           Preprocessor…
##  4 0             0.704   0.296 Fold1     9     1    25 0           Preprocessor…
##  5 0             0.712   0.288 Fold1    11     1    25 0           Preprocessor…
##  6 0             0.750   0.250 Fold1    15     1    25 0           Preprocessor…
##  7 0             0.645   0.355 Fold1    26     1    25 0           Preprocessor…
##  8 0             0.695   0.305 Fold1    28     1    25 0           Preprocessor…
##  9 0             0.700   0.300 Fold1    31     1    25 0           Preprocessor…
## 10 0             0.683   0.317 Fold1    32     1    25 0           Preprocessor…
## # ℹ 551,470 more rows
```
…
